<?xml version="1.0" encoding="UTF-8" standalone="no"?>
<!-- Created with Inkscape (http://www.inkscape.org/) -->

<svg
   width="128"
   height="128"
   viewBox="0 0 33.866667 33.866667"
   version="1.1"
   id="svg1"
   inkscape:version="1.3.2 (091e20ef0f, 2023-11-25, custom)"
   sodipodi:docname="icon_cell.svg"
   inkscape:export-filename="icon_cell.png"
   inkscape:export-xdpi="96"
   inkscape:export-ydpi="96"
   xmlns:inkscape="http://www.inkscape.org/namespaces/inkscape"
   xmlns:sodipodi="http://sodipodi.sourceforge.net/DTD/sodipodi-0.dtd"
   xmlns="http://www.w3.org/2000/svg"
   xmlns:svg="http://www.w3.org/2000/svg">
  <sodipodi:namedview
     id="namedview1"
     pagecolor="#ffffff"
     bordercolor="#000000"
     borderopacity="0.25"
     inkscape:showpageshadow="2"
     inkscape:pageopacity="0.0"
     inkscape:pagecheckerboard="0"
     inkscape:deskcolor="#d1d1d1"
     inkscape:document-units="mm"
     inkscape:zoom="6.0690151"
     inkscape:cx="64.672767"
     inkscape:cy="54.29217"
     inkscape:window-width="1914"
     inkscape:window-height="1074"
     inkscape:window-x="0"
     inkscape:window-y="0"
     inkscape:window-maximized="1"
     inkscape:current-layer="g12" />
  <defs
     id="defs1" />
  <g
     inkscape:label="Layer 1"
     inkscape:groupmode="layer"
     id="layer1">
    <g
       id="g12"
       transform="matrix(0.15873841,0,0,0.13172949,0.79610362,1.1004269)">
      <ellipse
         style="fill:#565cff;fill-opacity:1;fill-rule:nonzero;stroke:#0f00c8;stroke-width:0;stroke-dasharray:none;stroke-opacity:1"
         id="path10"
         cx="76.297615"
         cy="86.563126"
         rx="47.637928"
         ry="58.732727" />
      <ellipse
         style="fill:#ff3726;fill-opacity:1;fill-rule:nonzero;stroke:#0000c8;stroke-width:0;stroke-dasharray:none"
         id="path10-5"
         cx="117.78786"
         cy="144.80473"
         rx="47.637928"
         ry="58.732727" />
      <ellipse
         style="fill:none;fill-opacity:1;fill-rule:nonzero;stroke:#00758a;stroke-width:5.25356687;stroke-dasharray:none;stroke-opacity:1"
         id="path11"
         transform="matrix(0.72757067,-0.68603274,0.5269122,0.84991972,0,0)"
         cx="23.545586"
         cy="160.42177"
         rx="125.22722"
         ry="48.538704" />
    </g>
  </g>
</svg>
